{
  "log_level": "LOG_LEVEL_INFO",
  "log_subprocesses_to_journal": true,
  "dbus": {
    "enabled": true,
    "connect_timeout": "20s",
    "connect_interval": "0.200s",
    "notifications": {
      "enabled": true
    },
    "systray": {
      "enabled": true
    },
    "shortcuts": {
      "enabled": true
    },
    "brightness": {
      "enabled": true,
      "adjust_step_percent": 5,
      "min_brightness": 1,
      "enable_logind": true,
      "hud_notifications": true
    },
    "power": {
      "enabled": true,
      "low_percent": 10,
      "critical_percent": 5,
      "low_command": "",
      "critical_command": "",
      "hud_notifications": true
    }
  },
  "audio": {
    "enabled": true,
    "volume_step_percent": 5,
    "volume_exceed_maximum": false,
    "hud_notifications": true
  },
  "panels": [
    {
      "id": "panel0",
      "edge": "EDGE_RIGHT",
      "size": 64,
      "monitor": "",
      "modules": [
        {
          "pager": {
            "icon_size": 12,
            "active_monitor_only": false,
            "scroll_wrap_workspaces": true,
            "scroll_include_inactive": true,
            "enable_workspace_names": false,
            "pinned": [
              1,
              2,
              3,
              4,
              5,
              6
            ],
            "ignore_windows": []
          }
        },
        {
          "spacer": {
            "size": 16,
            "expand": false
          }
        },
        {
          "taskbar": {
            "icon_size": 48,
            "active_workspace_only": true,
            "active_monitor_only": true,
            "group_tasks": true,
            "hide_indicators": false,
            "expand": true,
            "max_size": 0,
            "pinned": []
          }
        },
        {
          "spacer": {
            "size": 16,
            "expand": false
          }
        },
        {
          "systray": {
            "icon_size": 22,
            "menu_icon_size": 22,
            "auto_hide_statuses": [
              "STATUS_UNSPECIFIED",
              "STATUS_PASSIVE",
              "STATUS_ACTIVE"
            ],
            "auto_hide_delay": "4s",
            "pinned": [
              "nm-applet",
              "chrome_status_icon_1"
            ],
            "modules": [
              {
                "power": {
                  "icon_size": 22,
                  "icon_symbolic": true
                }
              }
            ]
          }
        },
        {
          "notifications": {
            "icon_size": 24,
            "notification_icon_size": 48,
            "default_timeout": "7s",
            "position": "POSITION_TOP_RIGHT",
            "margin": 24,
            "persistent": []
          }
        },
        {
          "hud": {
            "notification_icon_size": 64,
            "timeout": "2s",
            "position": "POSITION_BOTTOM",
            "margin": 256
          }
        },
        {
          "spacer": {
            "size": 16,
            "expand": false
          }
        },
        {
          "audio": {
            "icon_size": 32,
            "icon_symbolic": true,
            "command_mixer": "pavucontrol"
          }
        },
        {
          "spacer": {
            "size": 16,
            "expand": false
          }
        },
        {
          "clock": {
            "time_format": "15:04",
            "date_format": "2006-01-02",
            "tooltip_time_format": "15:04",
            "tooltip_date_format": "Mon, 02 Jan 2006 MST",
            "additional_regions": [
              "America/Los_Angeles",
              "America/Chicago",
              "America/New_York",
              "Europe/London"
            ]
          }
        },
        {
          "spacer": {
            "size": 16,
            "expand": false
          }
        },
        {
          "session": {
            "icon_size": 48,
            "icon_symbolic": true,
            "overlay_icon_size": 96,
            "overlay_icon_symbolic": true,
            "command_logout": "loginctl terminate-session $XDG_SESSION_ID",
            "command_reboot": "systemctl reboot",
            "command_suspend": "systemctl suspend",
            "command_shutdown": "systemctl poweroff"
          }
        },
        {
          "spacer": {
            "size": 16,
            "expand": false
          }
        }
      ]
    }
  ],
  "bar.customModules.updates.pollingInterval": 1440000,
  "theme.font.size": "1.0rem",
  "terminal": "alacritty",
  "menus.transition": "crossfade",
  "theme.bar.menus.menu.dashboard.scaling": 95,
  "theme.bar.menus.menu.battery.scaling": 100,
  "theme.bar.floating": false,
  "theme.bar.buttons.enableBorders": false,
  "theme.bar.buttons.borderSize": "1px",
  "theme.bar.border.location": "bottom",
  "theme.bar.buttons.padding_x": "0.75rem",
  "theme.bar.buttons.padding_y": "0.1rem",
  "theme.bar.buttons.y_margins": "0.4em",
  "theme.bar.outer_spacing": "0.5em",
  "theme.bar.dropdownGap": "3.5em",
  "bar.launcher.autoDetectIcon": true,
  "theme.bar.buttons.dashboard.enableBorder": false,
  "bar.network.rightClick": "alacritty -e nmtui",
  "bar.battery.label": false,
  "bar.volume.label": true,
  "bar.network.showWifiInfo": true,
  "bar.bluetooth.label": false,
  "bar.battery.hideLabelWhenFull": true,
  "bar.media.show_label": true,
  "menus.volume.raiseMaximumVolume": true,
  "menus.clock.time.military": true,
  "menus.clock.time.hideSeconds": true,
  "menus.clock.weather.location": "20297",
  "theme.bar.buttons.modules.ram.enableBorder": false,
  "bar.customModules.netstat.networkInterface": "eno2",
  "bar.customModules.netstat.dynamicIcon": true,
  "theme.bar.buttons.modules.updates.enableBorder": true,
  "theme.bar.menus.monochrome": false,
  "wallpaper.pywal": false,
  "theme.bar.menus.background": "#191724",
  "theme.bar.background": "#191724",
  "theme.bar.buttons.media.icon": "#c4a7e7",
  "theme.bar.buttons.media.text": "#c4a7e7",
  "theme.bar.buttons.icon": "#c4a7e7",
  "theme.bar.buttons.text": "#c4a7e7",
  "theme.bar.buttons.hover": "#26233a",
  "theme.bar.buttons.background": "#21202e",
  "theme.bar.menus.text": "#e0def4",
  "theme.bar.menus.border.color": "#1f1d2e",
  "theme.bar.buttons.media.background": "#21202e",
  "theme.bar.menus.menu.volume.text": "#e0def4",
  "theme.bar.menus.menu.volume.card.color": "#21202e",
  "theme.bar.menus.menu.volume.label.color": "#eb6f92",
  "theme.bar.menus.popover.text": "#c4a7e7",
  "theme.bar.menus.popover.background": "#1f1d2e",
  "theme.bar.menus.menu.dashboard.powermenu.shutdown": "#eb6f92",
  "theme.bar.menus.menu.dashboard.powermenu.confirmation.deny": "#eb6f92",
  "theme.bar.menus.menu.dashboard.powermenu.confirmation.confirm": "#9ccfd8",
  "theme.bar.menus.menu.dashboard.powermenu.confirmation.button_text": "#191724",
  "theme.bar.menus.menu.dashboard.powermenu.confirmation.body": "#e0def4",
  "theme.bar.menus.menu.dashboard.powermenu.confirmation.label": "#c4a7e7",
  "theme.bar.menus.menu.dashboard.powermenu.confirmation.border": "#1f1d2e",
  "theme.bar.menus.menu.dashboard.powermenu.confirmation.background": "#191724",
  "theme.bar.menus.menu.dashboard.powermenu.confirmation.card": "#21202e",
  "theme.bar.menus.menu.notifications.switch.puck": "#26233a",
  "theme.bar.menus.menu.notifications.switch.disabled": "#1f1d2e",
  "theme.bar.menus.menu.notifications.switch.enabled": "#c4a7e7",
  "theme.bar.menus.menu.notifications.clear": "#eb6f92",
  "theme.bar.menus.menu.notifications.switch_divider": "#26233a",
  "theme.bar.menus.menu.notifications.border": "#1f1d2e",
  "theme.bar.menus.menu.notifications.card": "#21202e",
  "theme.bar.menus.menu.notifications.background": "#191724",
  "theme.bar.menus.menu.notifications.no_notifications_label": "#1f1d2e",
  "theme.bar.menus.menu.notifications.label": "#c4a7e7",
  "theme.bar.menus.menu.dashboard.monitors.disk.label": "#c4a7e7",
  "theme.bar.menus.menu.dashboard.monitors.disk.bar": "#c4a7e7",
  "theme.bar.menus.menu.dashboard.monitors.disk.icon": "#c4a7e7",
  "theme.bar.menus.menu.dashboard.monitors.gpu.label": "#9ccfd8",
  "theme.bar.menus.menu.dashboard.monitors.gpu.bar": "#9ccfd8",
  "theme.bar.menus.menu.dashboard.monitors.gpu.icon": "#9ccfd8",
  "theme.bar.menus.menu.dashboard.monitors.ram.label": "#f6c177",
  "theme.bar.menus.menu.dashboard.monitors.ram.bar": "#f6c177",
  "theme.bar.menus.menu.dashboard.monitors.ram.icon": "#f6c177",
  "theme.bar.menus.menu.dashboard.monitors.cpu.label": "#eb6f92",
  "theme.bar.menus.menu.dashboard.monitors.cpu.bar": "#eb6f92",
  "theme.bar.menus.menu.dashboard.monitors.cpu.icon": "#eb6f92",
  "theme.bar.menus.menu.dashboard.monitors.bar_background": "#26233a",
  "theme.bar.menus.menu.dashboard.directories.right.bottom.color": "#c4a7e7",
  "theme.bar.menus.menu.dashboard.directories.right.middle.color": "#30738f",
  "theme.bar.menus.menu.dashboard.directories.right.top.color": "#9ccfd8",
  "theme.bar.menus.menu.dashboard.directories.left.bottom.color": "#eb6f92",
  "theme.bar.menus.menu.dashboard.directories.left.middle.color": "#f6c177",
  "theme.bar.menus.menu.dashboard.directories.left.top.color": "#c4a7e7",
  "theme.bar.menus.menu.dashboard.controls.input.text": "#1f1d2e",
  "theme.bar.menus.menu.dashboard.controls.input.background": "#30738f",
  "theme.bar.menus.menu.dashboard.controls.volume.text": "#1f1d2e",
  "theme.bar.menus.menu.dashboard.controls.volume.background": "#eb6f92",
  "theme.bar.menus.menu.dashboard.controls.notifications.text": "#1f1d2e",
  "theme.bar.menus.menu.dashboard.controls.notifications.background": "#f6c177",
  "theme.bar.menus.menu.dashboard.controls.bluetooth.text": "#1f1d2e",
  "theme.bar.menus.menu.dashboard.controls.bluetooth.background": "#9ccfd8",
  "theme.bar.menus.menu.dashboard.controls.wifi.text": "#1f1d2e",
  "theme.bar.menus.menu.dashboard.controls.wifi.background": "#c4a7e7",
  "theme.bar.menus.menu.dashboard.controls.disabled": "#403d52",
  "theme.bar.menus.menu.dashboard.shortcuts.recording": "#9ccfd8",
  "theme.bar.menus.menu.dashboard.shortcuts.text": "#1f1d2e",
  "theme.bar.menus.menu.dashboard.shortcuts.background": "#c4a7e7",
  "theme.bar.menus.menu.dashboard.powermenu.sleep": "#9ccfd8",
  "theme.bar.menus.menu.dashboard.powermenu.logout": "#9ccfd8",
  "theme.bar.menus.menu.dashboard.powermenu.restart": "#f6c177",
  "theme.bar.menus.menu.dashboard.profile.name": "#c4a7e7",
  "theme.bar.menus.menu.dashboard.border.color": "#1f1d2e",
  "theme.bar.menus.menu.dashboard.background.color": "#191724",
  "theme.bar.menus.menu.dashboard.card.color": "#21202e",
  "theme.bar.menus.menu.clock.weather.hourly.temperature": "#c4a7e7",
  "theme.bar.menus.menu.clock.weather.hourly.icon": "#c4a7e7",
  "theme.bar.menus.menu.clock.weather.hourly.time": "#c4a7e7",
  "theme.bar.menus.menu.clock.weather.thermometer.extremelycold": "#9ccfd8",
  "theme.bar.menus.menu.clock.weather.thermometer.cold": "#31748f",
  "theme.bar.menus.menu.clock.weather.thermometer.moderate": "#c4a7e7",
  "theme.bar.menus.menu.clock.weather.thermometer.hot": "#f6c177",
  "theme.bar.menus.menu.clock.weather.thermometer.extremelyhot": "#eb6f92",
  "theme.bar.menus.menu.clock.weather.stats": "#c4a7e7",
  "theme.bar.menus.menu.clock.weather.status": "#9ccfd8",
  "theme.bar.menus.menu.clock.weather.temperature": "#e0def4",
  "theme.bar.menus.menu.clock.weather.icon": "#c4a7e7",
  "theme.bar.menus.menu.clock.calendar.contextdays": "#403d52",
  "theme.bar.menus.menu.clock.calendar.days": "#e0def4",
  "theme.bar.menus.menu.clock.calendar.currentday": "#c4a7e7",
  "theme.bar.menus.menu.clock.calendar.paginator": "#c4a7e7",
  "theme.bar.menus.menu.clock.calendar.weekdays": "#c4a7e7",
  "theme.bar.menus.menu.clock.calendar.yearmonth": "#9ccfd8",
  "theme.bar.menus.menu.clock.time.timeperiod": "#9ccfd8",
  "theme.bar.menus.menu.clock.time.time": "#c4a7e7",
  "theme.bar.menus.menu.clock.text": "#e0def4",
  "theme.bar.menus.menu.clock.border.color": "#1f1d2e",
  "theme.bar.menus.menu.clock.background.color": "#191724",
  "theme.bar.menus.menu.clock.card.color": "#21202e",
  "theme.bar.menus.menu.battery.slider.puck": "#26233a",
  "theme.bar.menus.menu.battery.slider.backgroundhover": "#26233a",
  "theme.bar.menus.menu.battery.slider.background": "#403d52",
  "theme.bar.menus.menu.battery.slider.primary": "#f6c177",
  "theme.bar.menus.menu.battery.icons.active": "#f6c177",
  "theme.bar.menus.menu.battery.icons.passive": "#524f67",
  "theme.bar.menus.menu.battery.listitems.active": "#f6c177",
  "theme.bar.menus.menu.battery.listitems.passive": "#e0def4",
  "theme.bar.menus.menu.battery.text": "#e0def4",
  "theme.bar.menus.menu.battery.label.color": "#f6c177",
  "theme.bar.menus.menu.battery.border.color": "#1f1d2e",
  "theme.bar.menus.menu.battery.background.color": "#191724",
  "theme.bar.menus.menu.battery.card.color": "#21202e",
  "theme.bar.menus.menu.systray.dropdownmenu.divider": "#21202e",
  "theme.bar.menus.menu.systray.dropdownmenu.text": "#e0def4",
  "theme.bar.menus.menu.systray.dropdownmenu.background": "#191724",
  "theme.bar.menus.menu.bluetooth.iconbutton.active": "#9ccfd8",
  "theme.bar.menus.menu.bluetooth.iconbutton.passive": "#e0def4",
  "theme.bar.menus.menu.bluetooth.icons.active": "#9ccfd8",
  "theme.bar.menus.menu.bluetooth.icons.passive": "#524f67",
  "theme.bar.menus.menu.bluetooth.listitems.active": "#9ccfd8",
  "theme.bar.menus.menu.bluetooth.listitems.passive": "#e0def4",
  "theme.bar.menus.menu.bluetooth.switch.puck": "#26233a",
  "theme.bar.menus.menu.bluetooth.switch.disabled": "#1f1d2e",
  "theme.bar.menus.menu.bluetooth.switch.enabled": "#9ccfd8",
  "theme.bar.menus.menu.bluetooth.switch_divider": "#26233a",
  "theme.bar.menus.menu.bluetooth.status": "#26233a",
  "theme.bar.menus.menu.bluetooth.text": "#e0def4",
  "theme.bar.menus.menu.bluetooth.label.color": "#9ccfd8",
  "theme.bar.menus.menu.bluetooth.border.color": "#1f1d2e",
  "theme.bar.menus.menu.bluetooth.background.color": "#191724",
  "theme.bar.menus.menu.bluetooth.card.color": "#21202e",
  "theme.bar.menus.menu.network.iconbuttons.active": "#c4a7e7",
  "theme.bar.menus.menu.network.iconbuttons.passive": "#e0def4",
  "theme.bar.menus.menu.network.icons.active": "#c4a7e7",
  "theme.bar.menus.menu.network.icons.passive": "#524f67",
  "theme.bar.menus.menu.network.listitems.active": "#c4a7e7",
  "theme.bar.menus.menu.network.listitems.passive": "#e0def4",
  "theme.bar.menus.menu.network.status.color": "#26233a",
  "theme.bar.menus.menu.network.text": "#e0def4",
  "theme.bar.menus.menu.network.label.color": "#c4a7e7",
  "theme.bar.menus.menu.network.border.color": "#1f1d2e",
  "theme.bar.menus.menu.network.background.color": "#191724",
  "theme.bar.menus.menu.network.card.color": "#21202e",
  "theme.bar.menus.menu.volume.input_slider.puck": "#403d52",
  "theme.bar.menus.menu.volume.input_slider.backgroundhover": "#26233a",
  "theme.bar.menus.menu.volume.input_slider.background": "#403d52",
  "theme.bar.menus.menu.volume.input_slider.primary": "#eb6f92",
  "theme.bar.menus.menu.volume.audio_slider.puck": "#403d52",
  "theme.bar.menus.menu.volume.audio_slider.backgroundhover": "#26233a",
  "theme.bar.menus.menu.volume.audio_slider.background": "#403d52",
  "theme.bar.menus.menu.volume.audio_slider.primary": "#eb6f92",
  "theme.bar.menus.menu.volume.icons.active": "#eb6f92",
  "theme.bar.menus.menu.volume.icons.passive": "#524f67",
  "theme.bar.menus.menu.volume.iconbutton.active": "#eb6f92",
  "theme.bar.menus.menu.volume.iconbutton.passive": "#e0def4",
  "theme.bar.menus.menu.volume.listitems.active": "#eb6f92",
  "theme.bar.menus.menu.volume.listitems.passive": "#e0def4",
  "theme.bar.menus.menu.volume.border.color": "#1f1d2e",
  "theme.bar.menus.menu.volume.background.color": "#191724",
  "theme.bar.menus.menu.media.slider.puck": "#26233a",
  "theme.bar.menus.menu.media.slider.backgroundhover": "#26233a",
  "theme.bar.menus.menu.media.slider.background": "#403d52",
  "theme.bar.menus.menu.media.slider.primary": "#c4a7e7",
  "theme.bar.menus.menu.media.buttons.text": "#191724",
  "theme.bar.menus.menu.media.buttons.background": "#c4a7e7",
  "theme.bar.menus.menu.media.buttons.enabled": "#9ccfd8",
  "theme.bar.menus.menu.media.buttons.inactive": "#403d52",
  "theme.bar.menus.menu.media.border.color": "#1f1d2e",
  "theme.bar.menus.menu.media.background.color": "#191724",
  "theme.bar.menus.menu.media.album": "#c4a7e7",
  "theme.bar.menus.menu.media.artist": "#9ccfd8",
  "theme.bar.menus.menu.media.song": "#c4a7e7",
  "theme.bar.menus.tooltip.text": "#e0def4",
  "theme.bar.menus.tooltip.background": "#191724",
  "theme.bar.menus.dropdownmenu.divider": "#21202e",
  "theme.bar.menus.dropdownmenu.text": "#e0def4",
  "theme.bar.menus.dropdownmenu.background": "#191724",
  "theme.bar.menus.slider.puck": "#26233a",
  "theme.bar.menus.slider.backgroundhover": "#26233a",
  "theme.bar.menus.slider.background": "#403d52",
  "theme.bar.menus.slider.primary": "#c4a7e7",
  "theme.bar.menus.progressbar.background": "#26233a",
  "theme.bar.menus.progressbar.foreground": "#c4a7e7",
  "theme.bar.menus.iconbuttons.active": "#c4a7e7",
  "theme.bar.menus.iconbuttons.passive": "#e0def4",
  "theme.bar.menus.buttons.text": "#1f1d2e",
  "theme.bar.menus.buttons.disabled": "#403d52",
  "theme.bar.menus.buttons.active": "#c4a7e7",
  "theme.bar.menus.buttons.default": "#c4a7e7",
  "theme.bar.menus.switch.puck": "#26233a",
  "theme.bar.menus.switch.disabled": "#1f1d2e",
  "theme.bar.menus.switch.enabled": "#c4a7e7",
  "theme.bar.menus.icons.active": "#c4a7e7",
  "theme.bar.menus.icons.passive": "#403d52",
  "theme.bar.menus.listitems.active": "#c4a7e7",
  "theme.bar.menus.listitems.passive": "#e0def4",
  "theme.bar.menus.label": "#c4a7e7",
  "theme.bar.menus.feinttext": "#1f1d2e",
  "theme.bar.menus.dimtext": "#403d52",
  "theme.bar.menus.cards": "#21202e",
  "theme.bar.buttons.notifications.total": "#c4a7e7",
  "theme.bar.buttons.notifications.icon": "#c4a7e7",
  "theme.bar.buttons.notifications.background": "#21202e",
  "theme.bar.buttons.clock.icon": "#c4a7e7",
  "theme.bar.buttons.clock.text": "#c4a7e7",
  "theme.bar.buttons.clock.background": "#21202e",
  "theme.bar.buttons.battery.icon": "#f6c177",
  "theme.bar.buttons.battery.text": "#f6c177",
  "theme.bar.buttons.battery.background": "#21202e",
  "theme.bar.buttons.systray.background": "#21202e",
  "theme.bar.buttons.bluetooth.icon": "#9ccfd8",
  "theme.bar.buttons.bluetooth.text": "#9ccfd8",
  "theme.bar.buttons.bluetooth.background": "#21202e",
  "theme.bar.buttons.network.icon": "#c4a7e7",
  "theme.bar.buttons.network.text": "#c4a7e7",
  "theme.bar.buttons.network.background": "#21202e",
  "theme.bar.buttons.volume.icon": "#eb6f92",
  "theme.bar.buttons.volume.text": "#eb6f92",
  "theme.bar.buttons.volume.background": "#21202e",
  "theme.bar.buttons.windowtitle.icon": "#c4a7e7",
  "theme.bar.buttons.windowtitle.text": "#c4a7e7",
  "theme.bar.buttons.windowtitle.background": "#21202e",
  "theme.bar.buttons.workspaces.active": "#c4a7e7",
  "theme.bar.buttons.workspaces.occupied": "#eb6f92",
  "theme.bar.buttons.workspaces.available": "#9ccfd8",
  "theme.bar.buttons.workspaces.hover": "#26233a",
  "theme.bar.buttons.workspaces.background": "#21202e",
  "theme.bar.buttons.dashboard.icon": "#f6c177",
  "theme.bar.buttons.dashboard.background": "#21202e",
  "theme.osd.label": "#c4a7e7",
  "theme.osd.icon": "#191724",
  "theme.osd.bar_overflow_color": "#eb6f92",
  "theme.osd.bar_empty_color": "#1f1d2e",
  "theme.osd.bar_color": "#c4a7e7",
  "theme.osd.icon_container": "#c4a7e7",
  "theme.osd.bar_container": "#191724",
  "theme.notification.close_button.label": "#191724",
  "theme.notification.close_button.background": "#eb6f92",
  "theme.notification.labelicon": "#c4a7e7",
  "theme.notification.text": "#e0def4",
  "theme.notification.time": "#403d52",
  "theme.notification.border": "#1f1d2e",
  "theme.notification.label": "#c4a7e7",
  "theme.notification.actions.text": "#1f1d2e",
  "theme.notification.actions.background": "#c4a7e7",
  "theme.notification.background": "#1f1d2e",
  "theme.bar.buttons.workspaces.numbered_active_highlighted_text_color": "#181825",
  "theme.bar.buttons.workspaces.numbered_active_underline_color": "#c678dd",
  "theme.bar.menus.menu.media.card.color": "#21202e",
  "theme.bar.menus.check_radio_button.background": "#393452",
  "theme.bar.menus.check_radio_button.active": "#c4a7e7",
  "theme.bar.buttons.style": "default",
  "theme.bar.menus.menu.notifications.pager.button": "#c4a7e7",
  "theme.bar.menus.menu.notifications.scrollbar.color": "#c4a7e7",
  "theme.bar.menus.menu.notifications.pager.label": "#524f67",
  "theme.bar.menus.menu.notifications.pager.background": "#191724",
  "theme.bar.buttons.clock.icon_background": "#c4a7e7",
  "theme.bar.buttons.modules.ram.icon": "#f6c177",
  "theme.bar.buttons.modules.storage.icon_background": "#eb6f92",
  "theme.bar.menus.popover.border": "#1f1d2e",
  "theme.bar.buttons.volume.icon_background": "#eb6f92",
  "theme.bar.menus.menu.power.buttons.sleep.icon_background": "#9ccfd8",
  "theme.bar.menus.menu.power.buttons.restart.text": "#f6c177",
  "theme.bar.buttons.modules.updates.background": "#21202e",
  "theme.bar.buttons.modules.storage.icon": "#eb6f92",
  "theme.bar.buttons.modules.netstat.background": "#21202e",
  "theme.bar.buttons.modules.weather.icon": "#c4a7e7",
  "theme.bar.buttons.modules.netstat.text": "#9ccfd8",
  "theme.bar.buttons.modules.storage.background": "#21202e",
  "theme.bar.buttons.modules.power.icon": "#eb6f92",
  "theme.bar.buttons.modules.storage.text": "#eb6f92",
  "theme.bar.buttons.modules.cpu.background": "#21202e",
  "theme.bar.menus.menu.power.border.color": "#1f1d2e",
  "theme.bar.buttons.network.icon_background": "#caa6f7",
  "theme.bar.buttons.modules.power.icon_background": "#eb6f92",
  "theme.bar.menus.menu.power.buttons.logout.icon": "#1f1d2e",
  "theme.bar.menus.menu.power.buttons.restart.icon_background": "#f6c177",
  "theme.bar.menus.menu.power.buttons.restart.icon": "#1f1d2e",
  "theme.bar.buttons.modules.cpu.icon": "#eb6f92",
  "theme.bar.buttons.battery.icon_background": "#f6c177",
  "theme.bar.buttons.modules.kbLayout.icon_background": "#9ccfd8",
  "theme.bar.buttons.modules.weather.text": "#c4a7e7",
  "theme.bar.menus.menu.power.buttons.shutdown.icon": "#1f1d2e",
  "theme.bar.menus.menu.power.buttons.sleep.text": "#9ccfd8",
  "theme.bar.buttons.modules.weather.icon_background": "#c4a7e7",
  "theme.bar.menus.menu.power.buttons.shutdown.background": "#21202e",
  "theme.bar.buttons.media.icon_background": "#c4a7e7",
  "theme.bar.menus.menu.power.buttons.logout.background": "#21202e",
  "theme.bar.buttons.modules.kbLayout.icon": "#9ccfd8",
  "theme.bar.buttons.modules.ram.icon_background": "#f6c177",
  "theme.bar.menus.menu.power.buttons.shutdown.icon_background": "#eb6f92",
  "theme.bar.menus.menu.power.buttons.shutdown.text": "#eb6f92",
  "theme.bar.menus.menu.power.buttons.sleep.background": "#21202e",
  "theme.bar.buttons.modules.ram.text": "#f6c177",
  "theme.bar.menus.menu.power.buttons.logout.text": "#9ccfd8",
  "theme.bar.buttons.modules.updates.icon_background": "#30738f",
  "theme.bar.buttons.modules.kbLayout.background": "#21202e",
  "theme.bar.buttons.modules.power.background": "#21202e",
  "theme.bar.buttons.modules.weather.background": "#21202e",
  "theme.bar.buttons.icon_background": "#21202e",
  "theme.bar.menus.menu.power.background.color": "#191724",
  "theme.bar.buttons.modules.ram.background": "#21202e",
  "theme.bar.buttons.modules.netstat.icon": "#9ccfd8",
  "theme.bar.buttons.windowtitle.icon_background": "#c4a7e7",
  "theme.bar.buttons.modules.cpu.icon_background": "#eb6f92",
  "theme.bar.menus.menu.power.buttons.logout.icon_background": "#9ccfd8",
  "theme.bar.buttons.modules.updates.text": "#30738f",
  "theme.bar.menus.menu.power.buttons.sleep.icon": "#1f1d2e",
  "theme.bar.buttons.bluetooth.icon_background": "#89dbeb",
  "theme.bar.menus.menu.power.buttons.restart.background": "#21202e",
  "theme.bar.buttons.modules.updates.icon": "#30738f",
  "theme.bar.buttons.modules.cpu.text": "#eb6f92",
  "theme.bar.buttons.modules.netstat.icon_background": "#9ccfd8",
  "theme.bar.buttons.modules.kbLayout.text": "#9ccfd8",
  "theme.bar.buttons.notifications.icon_background": "#c4a7e7",
  "theme.bar.buttons.modules.power.border": "#eb6f92",
  "theme.bar.buttons.modules.weather.border": "#c4a7e7",
  "theme.bar.buttons.modules.updates.border": "#30738f",
  "theme.bar.buttons.modules.kbLayout.border": "#9ccfd8",
  "theme.bar.buttons.modules.netstat.border": "#9ccfd8",
  "theme.bar.buttons.modules.storage.border": "#eb6f92",
  "theme.bar.buttons.modules.cpu.border": "#eb6f92",
  "theme.bar.buttons.modules.ram.border": "#f6c177",
  "theme.bar.buttons.notifications.border": "#c4a7e7",
  "theme.bar.buttons.clock.border": "#c4a7e7",
  "theme.bar.buttons.battery.border": "#f6c177",
  "theme.bar.buttons.systray.border": "#26233a",
  "theme.bar.buttons.bluetooth.border": "#9ccfd8",
  "theme.bar.buttons.network.border": "#c4a7e7",
  "theme.bar.buttons.volume.border": "#eb6f92",
  "theme.bar.buttons.media.border": "#c4a7e7",
  "theme.bar.buttons.windowtitle.border": "#c4a7e7",
  "theme.bar.buttons.workspaces.border": "#1f1d2e",
  "theme.bar.buttons.dashboard.border": "#f6c177",
  "theme.bar.buttons.modules.submap.background": "#21202e",
  "theme.bar.buttons.modules.submap.text": "#9ccfd8",
  "theme.bar.buttons.modules.submap.border": "#9ccfd8",
  "theme.bar.buttons.modules.submap.icon": "#9ccfd8",
  "theme.bar.buttons.modules.submap.icon_background": "#21202e",
  "theme.bar.menus.menu.network.switch.puck": "#26233a",
  "theme.bar.menus.menu.network.switch.disabled": "#1f1d2e",
  "theme.bar.menus.menu.network.switch.enabled": "#c4a7e7",
  "theme.bar.buttons.systray.customIcon": "#e0def4",
  "theme.bar.border.color": "#c4a7e7",
  "theme.bar.menus.menu.media.timestamp": "#e0def4",
  "theme.bar.buttons.borderColor": "#c4a7e7",
  "theme.bar.buttons.modules.hyprsunset.icon": "#f6c177",
  "theme.bar.buttons.modules.hyprsunset.background": "#21202e",
  "theme.bar.buttons.modules.hyprsunset.icon_background": "#f6c177",
  "theme.bar.buttons.modules.hyprsunset.text": "#f6c177",
  "theme.bar.buttons.modules.hyprsunset.border": "#f6c177",
  "theme.bar.buttons.modules.hypridle.icon": "#eb6f92",
  "theme.bar.buttons.modules.hypridle.background": "#21202e",
  "theme.bar.buttons.modules.hypridle.icon_background": "#eb6f92",
  "theme.bar.buttons.modules.hypridle.text": "#eb6f92",
  "theme.bar.buttons.modules.hypridle.border": "#eb6f92",
  "theme.bar.menus.menu.network.scroller.color": "#c4a7e7",
  "theme.bar.menus.menu.bluetooth.scroller.color": "#9ccfd8",
  "bar.volume.rightClick": "pavucontrol"
}